%YAML 1.1
%TAG !u! tag:unity3d.com,2011:
--- !u!1045 &1
EditorBuildSettings:
  m_ObjectHideFlags: 0
  serializedVersion: 2
  m_Scenes:
  - enabled: 1
    path: Assets/PERSONAJE.unity
    guid: 7501a9c8344353e47b28cbda458673df
  - enabled: 1
    path: Assets/FINAL.unity
    guid: 70a9091e83522474a9bee98136f28cd8
  m_configObjects: {}
